x;y;output;

4;6;52;

10;2;104;

1;1;2;

10;1;101;

4;4;32;

1;8;65;

10;6;136;

1;5;26;

6;6;72;

10;10;200;

2;8;68;

4;8;80;

3;1;10;

7;9;130;

10;5;125;

4;3;25;

2;7;53;

3;6;45;

9;6;117;

4;2;20;

